return {
  {
    label = {
      {
        "Copyright",
        col = 1,
        lno = 2,
        options = {
        },
        pos = 14
      },
      id = "stuff"
    },
    level = 1,
    link = "dest1",
    pageno = "7"
  },
  {
    label = {
      {
        "Proto-Evangelium of St. James",
        col = 1,
        lno = 3,
        options = {
        },
        pos = 22
      },
      id = "stuff"
    },
    level = 1,
    link = "dest2",
    pageno = "9"
  },
  {
    label = {
      {
        "Editor’s Introduction",
        col = 1,
        lno = 5,
        options = {
        },
        pos = 79
      },
      id = "stuff"
    },
    level = 2,
    link = "dest3",
    pageno = "9"
  },
  {
    label = {
      {
        "Text",
        col = 1,
        lno = 14,
        options = {
        },
        pos = 1448
      },
      id = "stuff"
    },
    level = 2,
    link = "dest4",
    pageno = "9"
  },
  {
    label = {
      {
        "The Didache",
        col = 1,
        lno = 2,
        options = {
        },
        pos = 14
      },
      id = "stuff"
    },
    level = 1,
    link = "dest5",
    pageno = "23"
  },
  {
    label = {
      {
        "Chapter 2. The Second Commandment: Gross Sin Forbidden",
        col = 1,
        lno = 8,
        options = {
        },
        pos = 1712
      },
      id = "stuff"
    },
    level = 3,
    link = "dest6",
    pageno = "24"
  },
  {
    label = {
      {
        "Chapter 3. Other Sins Forbidden",
        col = 1,
        lno = 12,
        options = {
        },
        pos = 2859
      },
      id = "stuff"
    },
    level = 3,
    link = "dest7",
    pageno = "24"
  },
  {
    label = {
      {
        "Chapter 4. Various Precepts",
        col = 1,
        lno = 16,
        options = {
        },
        pos = 4305
      },
      id = "stuff"
    },
    level = 3,
    link = "dest8",
    pageno = "25"
  },
  {
    label = {
      {
        "Chapter 5. The Way of Death",
        col = 1,
        lno = 20,
        options = {
        },
        pos = 6359
      },
      id = "stuff"
    },
    level = 3,
    link = "dest9",
    pageno = "26"
  },
  {
    label = {
      {
        "Chapter 6. Against False Teachers, and Food Offered to Idols",
        col = 1,
        lno = 25,
        options = {
        },
        pos = 7378
      },
      id = "stuff"
    },
    level = 3,
    link = "dest10",
    pageno = "27"
  },
  {
    label = {
      {
        "Chapter 7. Concerning Baptism",
        col = 1,
        lno = 29,
        options = {
        },
        pos = 7848
      },
      id = "stuff"
    },
    level = 3,
    link = "dest11",
    pageno = "27"
  },
  {
    label = {
      {
        "Chapter 8. Concerning Fasting and Prayer (the Lord’s Prayer)",
        col = 1,
        lno = 33,
        options = {
        },
        pos = 8462
      },
      id = "stuff"
    },
    level = 3,
    link = "dest12",
    pageno = "27"
  },
  {
    label = {
      {
        "Chapter 9. The Thanksgiving (Eucharist)",
        col = 1,
        lno = 37,
        options = {
        },
        pos = 9184
      },
      id = "stuff"
    },
    level = 3,
    link = "dest13",
    pageno = "28"
  },
  {
    label = {
      {
        "Chapter 10. Prayer After Communion",
        col = 1,
        lno = 41,
        options = {
        },
        pos = 10138
      },
      id = "stuff"
    },
    level = 3,
    link = "dest14",
    pageno = "28"
  },
  {
    label = {
      {
        "Chapter 11. Concerning Teachers, Apostles, and Prophets",
        col = 1,
        lno = 45,
        options = {
        },
        pos = 11259
      },
      id = "stuff"
    },
    level = 3,
    link = "dest15",
    pageno = "29"
  },
  {
    label = {
      {
        "Chapter 12. Reception of Christians",
        col = 1,
        lno = 50,
        options = {
        },
        pos = 13002
      },
      id = "stuff"
    },
    level = 3,
    link = "dest16",
    pageno = "30"
  },
  {
    label = {
      {
        "Chapter 13. Support of Prophets",
        col = 1,
        lno = 54,
        options = {
        },
        pos = 13677
      },
      id = "stuff"
    },
    level = 3,
    link = "dest17",
    pageno = "30"
  },
  {
    label = {
      {
        "Chapter 14. Christian Assembly on the Lord’s Day",
        col = 1,
        lno = 58,
        options = {
        },
        pos = 14486
      },
      id = "stuff"
    },
    level = 3,
    link = "dest18",
    pageno = "30"
  },
  {
    label = {
      {
        "Chapter 15. Bishops and Deacons; Christian Reproof",
        col = 1,
        lno = 62,
        options = {
        },
        pos = 15053
      },
      id = "stuff"
    },
    level = 3,
    link = "dest19",
    pageno = "31"
  },
  {
    label = {
      {
        "Chapter 16. Watchfulness; The Coming of the Lord",
        col = 1,
        lno = 66,
        options = {
        },
        pos = 15779
      },
      id = "stuff"
    },
    level = 3,
    link = "dest20",
    pageno = "31"
  },
  {
    label = {
      {
        "Of the Goods of Marriage",
        col = 1,
        lno = 2,
        options = {
        },
        pos = 14
      },
      id = "stuff"
    },
    level = 1,
    link = "dest21",
    pageno = "33"
  },
  {
    label = {
      {
        "Sermons on the Dormition of the Virgin",
        col = 1,
        lno = 2,
        options = {
        },
        pos = 14
      },
      id = "stuff"
    },
    level = 1,
    link = "dest22",
    pageno = "65"
  },
  {
    label = {
      {
        "Sermon I on the Dormition of the Virgin",
        col = 1,
        lno = 5,
        options = {
        },
        pos = 135
      },
      id = "stuff"
    },
    level = 2,
    link = "dest23",
    pageno = "65"
  },
  {
    label = {
      {
        "Sermon II on the Dormition of the Virgin",
        col = 1,
        lno = 40,
        options = {
        },
        pos = 28035
      },
      id = "stuff"
    },
    level = 2,
    link = "dest24",
    pageno = "77"
  },
  {
    label = {
      {
        "Sermon III on the Dormition of the Virgin",
        col = 1,
        lno = 94,
        options = {
        },
        pos = 59893
      },
      id = "stuff"
    },
    level = 2,
    link = "dest25",
    pageno = "91"
  },
  {
    label = {
      {
        "On the Orthodox Faith",
        col = 1,
        lno = 2,
        options = {
        },
        pos = 14
      },
      id = "stuff"
    },
    level = 1,
    link = "dest26",
    pageno = "97"
  },
  {
    label = {
      {
        "Book I",
        col = 1,
        lno = 5,
        options = {
        },
        pos = 118
      },
      id = "stuff"
    },
    level = 2,
    link = "dest27",
    pageno = "97"
  },
  {
    label = {
      {
        "Chapter 1. That the Deity is incomprehensible, and that we ought not to pry into and meddle with the things which have not been delivered to us by the holy Prophets, and Apostles, and Evangelists.",
        col = 1,
        lno = 6,
        options = {
        },
        pos = 134
      },
      id = "stuff"
    },
    level = 3,
    link = "dest28",
    pageno = "97"
  },
  {
    label = {
      {
        "Chapter 2. Concerning things utterable and things unutterable, and things knowable and thing unknowable.",
        col = 1,
        lno = 12,
        options = {
        },
        pos = 2147
      },
      id = "stuff"
    },
    level = 3,
    link = "dest29",
    pageno = "98"
  },
  {
    label = {
      {
        "Chapter 3. Proof that there is a God.",
        col = 1,
        lno = 20,
        options = {
        },
        pos = 5190
      },
      id = "stuff"
    },
    level = 3,
    link = "dest30",
    pageno = "99"
  },
  {
    label = {
      {
        "Chapter 4. Concerning the nature of Deity: that it is incomprehensible.",
        col = 1,
        lno = 31,
        options = {
        },
        pos = 9772
      },
      id = "stuff"
    },
    level = 3,
    link = "dest31",
    pageno = "102"
  },
  {
    label = {
      {
        "Chapter 5. Proof that God is one and not many.",
        col = 1,
        lno = 44,
        options = {
        },
        pos = 13209
      },
      id = "stuff"
    },
    level = 3,
    link = "dest32",
    pageno = "103"
  },
  {
    label = {
      {
        "Chapter 6. Concerning the Word and the Son of God: a reasoned proof.",
        col = 1,
        lno = 57,
        options = {
        },
        pos = 15571
      },
      id = "stuff"
    },
    level = 3,
    link = "dest33",
    pageno = "105"
  },
  {
    label = {
      {
        "Chapter 7. Concerning the Holy Spirit, a reasoned proof.",
        col = 1,
        lno = 62,
        options = {
        },
        pos = 17216
      },
      id = "stuff"
    },
    level = 3,
    link = "dest34",
    pageno = "105"
  },
  {
    label = {
      {
        "Chapter 8. Concerning the Holy Trinity.",
        col = 1,
        lno = 71,
        options = {
        },
        pos = 20683
      },
      id = "stuff"
    },
    level = 3,
    link = "dest35",
    pageno = "107"
  },
  {
    label = {
      {
        "Chapter 9. Concerning what is affirmed about God.",
        col = 1,
        lno = 109,
        options = {
        },
        pos = 45307
      },
      id = "stuff"
    },
    level = 3,
    link = "dest36",
    pageno = "118"
  },
  {
    label = {
      {
        "Chapter 10. Concerning divine union and separation.",
        col = 1,
        lno = 120,
        options = {
        },
        pos = 48009
      },
      id = "stuff"
    },
    level = 3,
    link = "dest37",
    pageno = "119"
  },
  {
    label = {
      {
        "Chapter 11. Concerning what is affirmed about God as though He had body.",
        col = 1,
        lno = 129,
        options = {
        },
        pos = 49568
      },
      id = "stuff"
    },
    level = 3,
    link = "dest38",
    pageno = "120"
  },
  {
    label = {
      {
        "Chapter 12. Concerning the Same.",
        col = 1,
        lno = 133,
        options = {
        },
        pos = 52836
      },
      id = "stuff"
    },
    level = 3,
    link = "dest39",
    pageno = "121"
  },
  {
    label = {
      {
        "Chapter 13. Concerning the place of God: and that the Deity alone is uncircumscribed.",
        col = 1,
        lno = 146,
        options = {
        },
        pos = 60229
      },
      id = "stuff"
    },
    level = 3,
    link = "dest40",
    pageno = "125"
  },
  {
    label = {
      {
        "Chapter 14. The properties of the divine nature.",
        col = 1,
        lno = 189,
        options = {
        },
        pos = 68435
      },
      id = "stuff"
    },
    level = 3,
    link = "dest41",
    pageno = "129"
  },
  {
    label = {
      {
        "Book II",
        col = 1,
        lno = 199,
        options = {
        },
        pos = 71003
      },
      id = "stuff"
    },
    level = 2,
    link = "dest42",
    pageno = "130"
  },
  {
    label = {
      {
        "Chapter 1. Concerning æon or age.",
        col = 1,
        lno = 201,
        options = {
        },
        pos = 71021
      },
      id = "stuff"
    },
    level = 3,
    link = "dest43",
    pageno = "130"
  },
  {
    label = {
      {
        "Chapter 2. Concerning the creation.",
        col = 1,
        lno = 213,
        options = {
        },
        pos = 73805
      },
      id = "stuff"
    },
    level = 3,
    link = "dest44",
    pageno = "132"
  },
  {
    label = {
      {
        "Chapter 3. Concerning angels.",
        col = 1,
        lno = 217,
        options = {
        },
        pos = 74400
      },
      id = "stuff"
    },
    level = 3,
    link = "dest45",
    pageno = "132"
  },
  {
    label = {
      {
        "Chapter 4. Concerning the devil and demons.",
        col = 1,
        lno = 259,
        options = {
        },
        pos = 81103
      },
      id = "stuff"
    },
    level = 3,
    link = "dest46",
    pageno = "135"
  },
  {
    label = {
      {
        "Chapter 5. Concerning the visible creation.",
        col = 1,
        lno = 271,
        options = {
        },
        pos = 83923
      },
      id = "stuff"
    },
    level = 3,
    link = "dest47",
    pageno = "137"
  },
  {
    label = {
      {
        "Chapter 6. Concerning the Heaven.",
        col = 1,
        lno = 275,
        options = {
        },
        pos = 84435
      },
      id = "stuff"
    },
    level = 3,
    link = "dest48",
    pageno = "137"
  },
  {
    label = {
      {
        "Chapter 7. Concerning light, fire, the luminaries, sun, moon and stars.",
        col = 1,
        lno = 300,
        options = {
        },
        pos = 92095
      },
      id = "stuff"
    },
    level = 3,
    link = "dest49",
    pageno = "141"
  },
  {
    label = {
      {
        "Chapter 8. Concerning air and winds.",
        col = 1,
        lno = 393,
        options = {
        },
        pos = 107567
      },
      id = "stuff"
    },
    level = 3,
    link = "dest50",
    pageno = "149"
  },
  {
    label = {
      {
        "Chapter 9. Concerning the waters.",
        col = 1,
        lno = 407,
        options = {
        },
        pos = 110449
      },
      id = "stuff"
    },
    level = 3,
    link = "dest51",
    pageno = "150"
  },
  {
    label = {
      {
        "Chapter 10. Concerning earth and its products.",
        col = 1,
        lno = 424,
        options = {
        },
        pos = 116664
      },
      id = "stuff"
    },
    level = 3,
    link = "dest52",
    pageno = "153"
  },
  {
    label = {
      {
        "Chapter 11. Concerning Paradise.",
        col = 1,
        lno = 443,
        options = {
        },
        pos = 121868
      },
      id = "stuff"
    },
    level = 3,
    link = "dest53",
    pageno = "156"
  },
  {
    label = {
      {
        "Chapter 12. Concerning Man.",
        col = 1,
        lno = 455,
        options = {
        },
        pos = 128922
      },
      id = "stuff"
    },
    level = 3,
    link = "dest54",
    pageno = "159"
  },
  {
    label = {
      {
        "Chapter 13. Concerning Pleasures.",
        col = 1,
        lno = 497,
        options = {
        },
        pos = 139485
      },
      id = "stuff"
    },
    level = 3,
    link = "dest55",
    pageno = "164"
  },
  {
    label = {
      {
        "Chapter 14. Concerning Pain.",
        col = 1,
        lno = 505,
        options = {
        },
        pos = 141491
      },
      id = "stuff"
    },
    level = 3,
    link = "dest56",
    pageno = "165"
  },
  {
    label = {
      {
        "Chapter 15. Concerning Fear.",
        col = 1,
        lno = 509,
        options = {
        },
        pos = 141790
      },
      id = "stuff"
    },
    level = 3,
    link = "dest57",
    pageno = "165"
  },
  {
    label = {
      {
        "Chapter 16. Concerning Anger.",
        col = 1,
        lno = 513,
        options = {
        },
        pos = 142485
      },
      id = "stuff"
    },
    level = 3,
    link = "dest58",
    pageno = "165"
  },
  {
    label = {
      {
        "Chapter 17. Concerning Imagination.",
        col = 1,
        lno = 521,
        options = {
        },
        pos = 143863
      },
      id = "stuff"
    },
    level = 3,
    link = "dest59",
    pageno = "166"
  },
  {
    label = {
      {
        "Chapter 18. Concerning Sensation.",
        col = 1,
        lno = 526,
        options = {
        },
        pos = 144751
      },
      id = "stuff"
    },
    level = 3,
    link = "dest60",
    pageno = "167"
  },
  {
    label = {
      {
        "Chapter 19. Concerning Thought.",
        col = 1,
        lno = 544,
        options = {
        },
        pos = 149201
      },
      id = "stuff"
    },
    level = 3,
    link = "dest61",
    pageno = "169"
  },
  {
    label = {
      {
        "Chapter 20. Concerning Memory.",
        col = 1,
        lno = 548,
        options = {
        },
        pos = 149841
      },
      id = "stuff"
    },
    level = 3,
    link = "dest62",
    pageno = "169"
  },
  {
    label = {
      {
        "Chapter 21. Concerning Conception and Articulation.",
        col = 1,
        lno = 556,
        options = {
        },
        pos = 151331
      },
      id = "stuff"
    },
    level = 3,
    link = "dest63",
    pageno = "170"
  },
  {
    label = {
      {
        "Chapter 22. Concerning Passion and Energy.",
        col = 1,
        lno = 560,
        options = {
        },
        pos = 152187
      },
      id = "stuff"
    },
    level = 3,
    link = "dest64",
    pageno = "170"
  },
  {
    label = {
      {
        "Chapter 23. Concerning Energy.",
        col = 1,
        lno = 594,
        options = {
        },
        pos = 163940
      },
      id = "stuff"
    },
    level = 3,
    link = "dest65",
    pageno = "175"
  },
  {
    label = {
      {
        "Chapter 24. Concerning what is Voluntary and what is Involuntary.",
        col = 1,
        lno = 610,
        options = {
        },
        pos = 166119
      },
      id = "stuff"
    },
    level = 3,
    link = "dest66",
    pageno = "176"
  },
  {
    label = {
      {
        "Chapter 25. Concerning what is in our own power, that is, concerning Free-will.",
        col = 1,
        lno = 622,
        options = {
        },
        pos = 170052
      },
      id = "stuff"
    },
    level = 3,
    link = "dest67",
    pageno = "178"
  },
  {
    label = {
      {
        "Chapter 26. Concerning Events.",
        col = 1,
        lno = 631,
        options = {
        },
        pos = 173154
      },
      id = "stuff"
    },
    level = 3,
    link = "dest68",
    pageno = "180"
  },
  {
    label = {
      {
        "Chapter 27. Concerning the reason of our endowment with Free-will.",
        col = 1,
        lno = 637,
        options = {
        },
        pos = 174554
      },
      id = "stuff"
    },
    level = 3,
    link = "dest69",
    pageno = "180"
  },
  {
    label = {
      {
        "Chapter 28. Concerning what is not in our hands.",
        col = 1,
        lno = 643,
        options = {
        },
        pos = 176875
      },
      id = "stuff"
    },
    level = 3,
    link = "dest70",
    pageno = "181"
  },
  {
    label = {
      {
        "Chapter 29. Concerning Providence.",
        col = 1,
        lno = 647,
        options = {
        },
        pos = 178033
      },
      id = "stuff"
    },
    level = 3,
    link = "dest71",
    pageno = "182"
  },
  {
    label = {
      {
        "Chapter 30. Concerning Prescience and Predestination.",
        col = 1,
        lno = 673,
        options = {
        },
        pos = 185064
      },
      id = "stuff"
    },
    level = 3,
    link = "dest72",
    pageno = "185"
  },
  {
    label = {
      {
        "Book III",
        col = 1,
        lno = 691,
        options = {
        },
        pos = 190932
      },
      id = "stuff"
    },
    level = 2,
    link = "dest73",
    pageno = "188"
  },
  {
    label = {
      {
        "Chapter 1. Concerning the Divine Œconomy and God’s care over us, and concerning our salvation.",
        col = 1,
        lno = 693,
        options = {
        },
        pos = 190951
      },
      id = "stuff"
    },
    level = 3,
    link = "dest74",
    pageno = "188"
  },
  {
    label = {
      {
        "Chapter 2. — Concerning the manner in which the Word was conceived, and concerning His divine incarnation.",
        col = 1,
        lno = 697,
        options = {
        },
        pos = 195295
      },
      id = "stuff"
    },
    level = 3,
    link = "dest75",
    pageno = "190"
  },
  {
    label = {
      {
        "Chapter 3. Concerning Christ’s two natures, in opposition to those who hold that He has only one.",
        col = 1,
        lno = 703,
        options = {
        },
        pos = 198616
      },
      id = "stuff"
    },
    level = 3,
    link = "dest76",
    pageno = "191"
  },
  {
    label = {
      {
        "Chapter 4. Concerning the manner of the Mutual Communication.",
        col = 1,
        lno = 719,
        options = {
        },
        pos = 206591
      },
      id = "stuff"
    },
    level = 3,
    link = "dest77",
    pageno = "195"
  },
  {
    label = {
      {
        "Chapter 5. Concerning the number of the Natures.",
        col = 1,
        lno = 727,
        options = {
        },
        pos = 209907
      },
      id = "stuff"
    },
    level = 3,
    link = "dest78",
    pageno = "197"
  },
  {
    label = {
      {
        "Chapter 6. That in one of its subsistences the divine nature is united in its entirety to the human nature, in its entirety and not only part to part.",
        col = 1,
        lno = 732,
        options = {
        },
        pos = 213492
      },
      id = "stuff"
    },
    level = 3,
    link = "dest79",
    pageno = "199"
  },
  {
    label = {
      {
        "Chapter 7. Concerning the one compound subsistence of God the Word.",
        col = 1,
        lno = 747,
        options = {
        },
        pos = 219306
      },
      id = "stuff"
    },
    level = 3,
    link = "dest80",
    pageno = "201"
  },
  {
    label = {
      {
        "Chapter 8. In reply to those who ask whether the natures of the Lord are brought under a continuous or a discontinuous quantity.",
        col = 1,
        lno = 762,
        options = {
        },
        pos = 224056
      },
      id = "stuff"
    },
    level = 3,
    link = "dest81",
    pageno = "204"
  },
  {
    label = {
      {
        "Chapter 9. In reply to the question whether there is Nature that has no Subsistence.",
        col = 1,
        lno = 776,
        options = {
        },
        pos = 228603
      },
      id = "stuff"
    },
    level = 3,
    link = "dest82",
    pageno = "206"
  },
  {
    label = {
      {
        "Chapter 10. Concerning the Trisagium (the Thrice Holy).",
        col = 1,
        lno = 781,
        options = {
        },
        pos = 230250
      },
      id = "stuff"
    },
    level = 3,
    link = "dest83",
    pageno = "207"
  },
  {
    label = {
      {
        "Chapter 11. Concerning the Nature as viewed in Species and in Individual, and concerning the difference between Union and Incarnation: and how this is to be understood, The one Nature of God the Word Incarnate.",
        col = 1,
        lno = 790,
        options = {
        },
        pos = 234441
      },
      id = "stuff"
    },
    level = 3,
    link = "dest84",
    pageno = "209"
  },
  {
    label = {
      {
        "Chapter 12. That the holy Virgin is the Mother of God: an argument directed against the Nestorians.",
        col = 1,
        lno = 800,
        options = {
        },
        pos = 239813
      },
      id = "stuff"
    },
    level = 3,
    link = "dest85",
    pageno = "211"
  },
  {
    label = {
      {
        "Chapter 13. Concerning the properties of the two Natures.",
        col = 1,
        lno = 814,
        options = {
        },
        pos = 246032
      },
      id = "stuff"
    },
    level = 3,
    link = "dest86",
    pageno = "214"
  },
  {
    label = {
      {
        "Chapter 14. Concerning the volitions and free-will of our Lord Jesus Christ.",
        col = 1,
        lno = 819,
        options = {
        },
        pos = 246997
      },
      id = "stuff"
    },
    level = 3,
    link = "dest87",
    pageno = "215"
  },
  {
    label = {
      {
        "Chapter 15. Concerning the energies in our Lord Jesus Christ.",
        col = 1,
        lno = 872,
        options = {
        },
        pos = 262060
      },
      id = "stuff"
    },
    level = 3,
    link = "dest88",
    pageno = "222"
  },
  {
    label = {
      {
        "Chapter 16. In reply to those who say If man has two natures and two energies, Christ must be held to have three natures and as many energies.",
        col = 1,
        lno = 922,
        options = {
        },
        pos = 281298
      },
      id = "stuff"
    },
    level = 3,
    link = "dest89",
    pageno = "230"
  },
  {
    label = {
      {
        "Chapter 17. Concerning the deification of the nature of our Lord’s flesh and of His will.",
        col = 1,
        lno = 936,
        options = {
        },
        pos = 285679
      },
      id = "stuff"
    },
    level = 3,
    link = "dest90",
    pageno = "232"
  },
  {
    label = {
      {
        "Chapter 18. Further concerning volitions and free-wills: minds, too, and knowledges and wisdoms.",
        col = 1,
        lno = 944,
        options = {
        },
        pos = 288718
      },
      id = "stuff"
    },
    level = 3,
    link = "dest91",
    pageno = "234"
  },
  {
    label = {
      {
        "Chapter 19. Concerning the theandric energy.",
        col = 1,
        lno = 960,
        options = {
        },
        pos = 295116
      },
      id = "stuff"
    },
    level = 3,
    link = "dest92",
    pageno = "237"
  },
  {
    label = {
      {
        "Chapter 20. Concerning the natural and innocent passions.",
        col = 1,
        lno = 971,
        options = {
        },
        pos = 298923
      },
      id = "stuff"
    },
    level = 3,
    link = "dest93",
    pageno = "238"
  },
  {
    label = {
      {
        "Chapter 21. Concerning ignorance and servitude.",
        col = 1,
        lno = 982,
        options = {
        },
        pos = 300979
      },
      id = "stuff"
    },
    level = 3,
    link = "dest94",
    pageno = "239"
  },
  {
    label = {
      {
        "Chapter 22. Concerning His growth.",
        col = 1,
        lno = 991,
        options = {
        },
        pos = 303855
      },
      id = "stuff"
    },
    level = 3,
    link = "dest95",
    pageno = "241"
  },
  {
    label = {
      {
        "Chapter 23. Concerning His Fear.",
        col = 1,
        lno = 997,
        options = {
        },
        pos = 305378
      },
      id = "stuff"
    },
    level = 3,
    link = "dest96",
    pageno = "242"
  },
  {
    label = {
      {
        "Chapter 24. Concerning our Lord’s Praying.",
        col = 1,
        lno = 1006,
        options = {
        },
        pos = 308321
      },
      id = "stuff"
    },
    level = 3,
    link = "dest97",
    pageno = "243"
  },
  {
    label = {
      {
        "Chapter 25. Concerning the Appropriation.",
        col = 1,
        lno = 1014,
        options = {
        },
        pos = 311275
      },
      id = "stuff"
    },
    level = 3,
    link = "dest98",
    pageno = "244"
  },
  {
    label = {
      {
        "Chapter 26. Concerning the Passion of our Lord’s body, and the Impassibility of His divinity.",
        col = 1,
        lno = 1018,
        options = {
        },
        pos = 312264
      },
      id = "stuff"
    },
    level = 3,
    link = "dest99",
    pageno = "245"
  },
  {
    label = {
      {
        "Chapter 27. Concerning the fact that the divinity of the Word remained inseparable from the soul and the body, even at our Lord’s death, and that His subsistence continued one.",
        col = 1,
        lno = 1025,
        options = {
        },
        pos = 314266
      },
      id = "stuff"
    },
    level = 3,
    link = "dest100",
    pageno = "246"
  },
  {
    label = {
      {
        "Chapter 28. Concerning Corruption and Destruction.",
        col = 1,
        lno = 1032,
        options = {
        },
        pos = 316392
      },
      id = "stuff"
    },
    level = 3,
    link = "dest101",
    pageno = "247"
  },
  {
    label = {
      {
        "Chapter 29. Concerning the Descent to Hades.",
        col = 1,
        lno = 1039,
        options = {
        },
        pos = 318575
      },
      id = "stuff"
    },
    level = 3,
    link = "dest102",
    pageno = "248"
  },
  {
    label = {
      {
        "Book IV",
        col = 1,
        lno = 1044,
        options = {
        },
        pos = 319535
      },
      id = "stuff"
    },
    level = 2,
    link = "dest103",
    pageno = "249"
  },
  {
    label = {
      {
        "Chapter 1. Concerning what followed the Resurrection.",
        col = 1,
        lno = 1045,
        options = {
        },
        pos = 319552
      },
      id = "stuff"
    },
    level = 3,
    link = "dest104",
    pageno = "249"
  },
  {
    label = {
      {
        "Chapter 2. Concerning the sitting at the right hand of the Father.",
        col = 1,
        lno = 1050,
        options = {
        },
        pos = 321067
      },
      id = "stuff"
    },
    level = 3,
    link = "dest105",
    pageno = "250"
  },
  {
    label = {
      {
        "Chapter 3. In reply to those who say If Christ has two natures, either you do service to the creature in worshipping created nature, or you say that there is one nature to be worshipped, and another not to be worshipped.",
        col = 1,
        lno = 1055,
        options = {
        },
        pos = 321799
      },
      id = "stuff"
    },
    level = 3,
    link = "dest106",
    pageno = "250"
  },
  {
    label = {
      {
        "Chapter 4. Why it was the Son of God, and not the Father or the Spirit, that became man: and what having became man He achieved.",
        col = 1,
        lno = 1060,
        options = {
        },
        pos = 323437
      },
      id = "stuff"
    },
    level = 3,
    link = "dest107",
    pageno = "251"
  },
  {
    label = {
      {
        "Chapter 5. In reply to those who ask if Christ’s subsistence is create or uncreate.",
        col = 1,
        lno = 1070,
        options = {
        },
        pos = 328336
      },
      id = "stuff"
    },
    level = 3,
    link = "dest108",
    pageno = "253"
  },
  {
    label = {
      {
        "Chapter 6. Concerning the question, when Christ was called.",
        col = 1,
        lno = 1076,
        options = {
        },
        pos = 329107
      },
      id = "stuff"
    },
    level = 3,
    link = "dest109",
    pageno = "254"
  },
  {
    label = {
      {
        "Chapter 7. In answer to those who enquire whether the holy Mother of God bore two natures, and whether two natures hung upon the Cross.",
        col = 1,
        lno = 1083,
        options = {
        },
        pos = 331597
      },
      id = "stuff"
    },
    level = 3,
    link = "dest110",
    pageno = "255"
  },
  {
    label = {
      {
        "Chapter 8. How the Only-begotten Son of God is called first-born.",
        col = 1,
        lno = 1090,
        options = {
        },
        pos = 334345
      },
      id = "stuff"
    },
    level = 3,
    link = "dest111",
    pageno = "256"
  },
  {
    label = {
      {
        "Chapter 9. Concerning Faith and Baptism.",
        col = 1,
        lno = 1094,
        options = {
        },
        pos = 336066
      },
      id = "stuff"
    },
    level = 3,
    link = "dest112",
    pageno = "257"
  },
  {
    label = {
      {
        "Chapter 10. Concerning Faith.",
        col = 1,
        lno = 1116,
        options = {
        },
        pos = 344248
      },
      id = "stuff"
    },
    level = 3,
    link = "dest113",
    pageno = "261"
  },
  {
    label = {
      {
        "Chapter 11. Concerning the Cross and here further concerning Faith.",
        col = 1,
        lno = 1124,
        options = {
        },
        pos = 345242
      },
      id = "stuff"
    },
    level = 3,
    link = "dest114",
    pageno = "262"
  },
  {
    label = {
      {
        "Chapter 12. Concerning Worship towards the East.",
        col = 1,
        lno = 1138,
        options = {
        },
        pos = 352232
      },
      id = "stuff"
    },
    level = 3,
    link = "dest115",
    pageno = "265"
  },
  {
    label = {
      {
        "Chapter 13. Concerning the holy and immaculate Mysteries of the Lord.",
        col = 1,
        lno = 1147,
        options = {
        },
        pos = 354586
      },
      id = "stuff"
    },
    level = 3,
    link = "dest116",
    pageno = "266"
  },
  {
    label = {
      {
        "Chapter 14. Concerning our Lord’s genealogy and concerning the holy Mother of God.",
        col = 1,
        lno = 1184,
        options = {
        },
        pos = 368288
      },
      id = "stuff"
    },
    level = 3,
    link = "dest117",
    pageno = "273"
  },
  {
    label = {
      {
        "Chapter 15. Concerning the honour due to the Saints and their remains.",
        col = 1,
        lno = 1209,
        options = {
        },
        pos = 377576
      },
      id = "stuff"
    },
    level = 3,
    link = "dest118",
    pageno = "277"
  },
  {
    label = {
      {
        "Chapter 16. Concerning Images.",
        col = 1,
        lno = 1222,
        options = {
        },
        pos = 384330
      },
      id = "stuff"
    },
    level = 3,
    link = "dest119",
    pageno = "281"
  },
  {
    label = {
      {
        "Chapter 17. Concerning Scripture.",
        col = 1,
        lno = 1235,
        options = {
        },
        pos = 389135
      },
      id = "stuff"
    },
    level = 3,
    link = "dest120",
    pageno = "283"
  },
  {
    label = {
      {
        "Chapter 18. Regarding the things said concerning Christ.",
        col = 1,
        lno = 1311,
        options = {
        },
        pos = 395630
      },
      id = "stuff"
    },
    level = 3,
    link = "dest121",
    pageno = "287"
  },
  {
    label = {
      {
        "Chapter 19. That God is not the cause of evils.",
        col = 1,
        lno = 1351,
        options = {
        },
        pos = 408804
      },
      id = "stuff"
    },
    level = 3,
    link = "dest122",
    pageno = "294"
  },
  {
    label = {
      {
        "Chapter 20. That there are not two Kingdoms.",
        col = 1,
        lno = 1362,
        options = {
        },
        pos = 412747
      },
      id = "stuff"
    },
    level = 3,
    link = "dest123",
    pageno = "296"
  },
  {
    label = {
      {
        "Chapter 21. The purpose for which God in His foreknowledge created persons who would sin and not repent.",
        col = 1,
        lno = 1378,
        options = {
        },
        pos = 415936
      },
      id = "stuff"
    },
    level = 3,
    link = "dest124",
    pageno = "297"
  },
  {
    label = {
      {
        "Chapter 22. Concerning the law of God and the law of sin.",
        col = 1,
        lno = 1382,
        options = {
        },
        pos = 417393
      },
      id = "stuff"
    },
    level = 3,
    link = "dest125",
    pageno = "298"
  },
  {
    label = {
      {
        "Chapter 23. Against the Jews on the question of the Sabbath.",
        col = 1,
        lno = 1390,
        options = {
        },
        pos = 419987
      },
      id = "stuff"
    },
    level = 3,
    link = "dest126",
    pageno = "299"
  },
  {
    label = {
      {
        "Chapter 24. Concerning Virginity.",
        col = 1,
        lno = 1404,
        options = {
        },
        pos = 427207
      },
      id = "stuff"
    },
    level = 3,
    link = "dest127",
    pageno = "302"
  },
  {
    label = {
      {
        "Chapter 25. Concerning the Circumcision.",
        col = 1,
        lno = 1418,
        options = {
        },
        pos = 433040
      },
      id = "stuff"
    },
    level = 3,
    link = "dest128",
    pageno = "305"
  },
  {
    label = {
      {
        "Chapter 26. Concerning the Antichrist.",
        col = 1,
        lno = 1424,
        options = {
        },
        pos = 436178
      },
      id = "stuff"
    },
    level = 3,
    link = "dest129",
    pageno = "307"
  },
  {
    label = {
      {
        "Chapter 27. Concerning the Resurrection.",
        col = 1,
        lno = 1434,
        options = {
        },
        pos = 440036
      },
      id = "stuff"
    },
    level = 3,
    link = "dest130",
    pageno = "309"
  },
  {
    label = {
      {
        "Canons of the Sixth Ecumenical Council at Trullo",
        col = 1,
        lno = 2,
        options = {
        },
        pos = 14
      },
      id = "stuff"
    },
    level = 1,
    link = "dest131",
    pageno = "315"
  },
  {
    label = {
      {
        "Canon 1",
        col = 1,
        lno = 5,
        options = {
        },
        pos = 96
      },
      id = "stuff"
    },
    level = 3,
    link = "dest132",
    pageno = "315"
  },
  {
    label = {
      {
        "Canon 2",
        col = 1,
        lno = 27,
        options = {
        },
        pos = 6662
      },
      id = "stuff"
    },
    level = 3,
    link = "dest133",
    pageno = "318"
  },
  {
    label = {
      {
        "Canon 3",
        col = 1,
        lno = 31,
        options = {
        },
        pos = 9592
      },
      id = "stuff"
    },
    level = 3,
    link = "dest134",
    pageno = "319"
  },
  {
    label = {
      {
        "Canon 4",
        col = 1,
        lno = 35,
        options = {
        },
        pos = 12700
      },
      id = "stuff"
    },
    level = 3,
    link = "dest135",
    pageno = "321"
  },
  {
    label = {
      {
        "Canon 5",
        col = 1,
        lno = 39,
        options = {
        },
        pos = 12959
      },
      id = "stuff"
    },
    level = 3,
    link = "dest136",
    pageno = "321"
  },
  {
    label = {
      {
        "Canon 6",
        col = 1,
        lno = 43,
        options = {
        },
        pos = 13484
      },
      id = "stuff"
    },
    level = 3,
    link = "dest137",
    pageno = "321"
  },
  {
    label = {
      {
        "Canon 7",
        col = 1,
        lno = 47,
        options = {
        },
        pos = 14038
      },
      id = "stuff"
    },
    level = 3,
    link = "dest138",
    pageno = "321"
  },
  {
    label = {
      {
        "Canon 8",
        col = 1,
        lno = 51,
        options = {
        },
        pos = 15741
      },
      id = "stuff"
    },
    level = 3,
    link = "dest139",
    pageno = "322"
  },
  {
    label = {
      {
        "Canon 9",
        col = 1,
        lno = 55,
        options = {
        },
        pos = 16725
      },
      id = "stuff"
    },
    level = 3,
    link = "dest140",
    pageno = "323"
  },
  {
    label = {
      {
        "Canon 10",
        col = 1,
        lno = 59,
        options = {
        },
        pos = 17032
      },
      id = "stuff"
    },
    level = 3,
    link = "dest141",
    pageno = "323"
  },
  {
    label = {
      {
        "Canon 11",
        col = 1,
        lno = 63,
        options = {
        },
        pos = 17169
      },
      id = "stuff"
    },
    level = 3,
    link = "dest142",
    pageno = "323"
  },
  {
    label = {
      {
        "Canon 12",
        col = 1,
        lno = 67,
        options = {
        },
        pos = 17523
      },
      id = "stuff"
    },
    level = 3,
    link = "dest143",
    pageno = "323"
  },
  {
    label = {
      {
        "Canon 13",
        col = 1,
        lno = 71,
        options = {
        },
        pos = 18636
      },
      id = "stuff"
    },
    level = 3,
    link = "dest144",
    pageno = "324"
  },
  {
    label = {
      {
        "Canon 14",
        col = 1,
        lno = 77,
        options = {
        },
        pos = 20835
      },
      id = "stuff"
    },
    level = 3,
    link = "dest145",
    pageno = "325"
  },
  {
    label = {
      {
        "Canon 15",
        col = 1,
        lno = 81,
        options = {
        },
        pos = 21250
      },
      id = "stuff"
    },
    level = 3,
    link = "dest146",
    pageno = "325"
  },
  {
    label = {
      {
        "Canon 16",
        col = 1,
        lno = 85,
        options = {
        },
        pos = 21457
      },
      id = "stuff"
    },
    level = 3,
    link = "dest147",
    pageno = "325"
  },
  {
    label = {
      {
        "Canon 17",
        col = 1,
        lno = 93,
        options = {
        },
        pos = 23816
      },
      id = "stuff"
    },
    level = 3,
    link = "dest148",
    pageno = "326"
  },
  {
    label = {
      {
        "Canon 18",
        col = 1,
        lno = 97,
        options = {
        },
        pos = 24548
      },
      id = "stuff"
    },
    level = 3,
    link = "dest149",
    pageno = "327"
  },
  {
    label = {
      {
        "Canon 19",
        col = 1,
        lno = 101,
        options = {
        },
        pos = 25083
      },
      id = "stuff"
    },
    level = 3,
    link = "dest150",
    pageno = "327"
  },
  {
    label = {
      {
        "Canon 20",
        col = 1,
        lno = 105,
        options = {
        },
        pos = 26181
      },
      id = "stuff"
    },
    level = 3,
    link = "dest151",
    pageno = "327"
  },
  {
    label = {
      {
        "Canon 21",
        col = 1,
        lno = 109,
        options = {
        },
        pos = 26428
      },
      id = "stuff"
    },
    level = 3,
    link = "dest152",
    pageno = "327"
  },
  {
    label = {
      {
        "Canon 22",
        col = 1,
        lno = 113,
        options = {
        },
        pos = 27035
      },
      id = "stuff"
    },
    level = 3,
    link = "dest153",
    pageno = "328"
  },
  {
    label = {
      {
        "Canon 23",
        col = 1,
        lno = 117,
        options = {
        },
        pos = 27240
      },
      id = "stuff"
    },
    level = 3,
    link = "dest154",
    pageno = "328"
  },
  {
    label = {
      {
        "Canon 24",
        col = 1,
        lno = 121,
        options = {
        },
        pos = 27742
      },
      id = "stuff"
    },
    level = 3,
    link = "dest155",
    pageno = "328"
  },
  {
    label = {
      {
        "Canon 25",
        col = 1,
        lno = 125,
        options = {
        },
        pos = 28147
      },
      id = "stuff"
    },
    level = 3,
    link = "dest156",
    pageno = "328"
  },
  {
    label = {
      {
        "Canon 26",
        col = 1,
        lno = 129,
        options = {
        },
        pos = 28643
      },
      id = "stuff"
    },
    level = 3,
    link = "dest157",
    pageno = "329"
  },
  {
    label = {
      {
        "Canon 27",
        col = 1,
        lno = 133,
        options = {
        },
        pos = 29581
      },
      id = "stuff"
    },
    level = 3,
    link = "dest158",
    pageno = "329"
  },
  {
    label = {
      {
        "Canon 28",
        col = 1,
        lno = 137,
        options = {
        },
        pos = 29909
      },
      id = "stuff"
    },
    level = 3,
    link = "dest159",
    pageno = "329"
  },
  {
    label = {
      {
        "Canon 29",
        col = 1,
        lno = 141,
        options = {
        },
        pos = 30737
      },
      id = "stuff"
    },
    level = 3,
    link = "dest160",
    pageno = "330"
  },
  {
    label = {
      {
        "Canon 30",
        col = 1,
        lno = 145,
        options = {
        },
        pos = 31390
      },
      id = "stuff"
    },
    level = 3,
    link = "dest161",
    pageno = "330"
  },
  {
    label = {
      {
        "Canon 31",
        col = 1,
        lno = 149,
        options = {
        },
        pos = 32063
      },
      id = "stuff"
    },
    level = 3,
    link = "dest162",
    pageno = "331"
  },
  {
    label = {
      {
        "Canon 32",
        col = 1,
        lno = 153,
        options = {
        },
        pos = 32308
      },
      id = "stuff"
    },
    level = 3,
    link = "dest163",
    pageno = "331"
  },
  {
    label = {
      {
        "Canon 33",
        col = 1,
        lno = 161,
        options = {
        },
        pos = 35021
      },
      id = "stuff"
    },
    level = 3,
    link = "dest164",
    pageno = "332"
  },
  {
    label = {
      {
        "Canon 34",
        col = 1,
        lno = 165,
        options = {
        },
        pos = 36030
      },
      id = "stuff"
    },
    level = 3,
    link = "dest165",
    pageno = "333"
  },
  {
    label = {
      {
        "Canon 35",
        col = 1,
        lno = 169,
        options = {
        },
        pos = 36463
      },
      id = "stuff"
    },
    level = 3,
    link = "dest166",
    pageno = "333"
  },
  {
    label = {
      {
        "Canon 36",
        col = 1,
        lno = 173,
        options = {
        },
        pos = 36971
      },
      id = "stuff"
    },
    level = 3,
    link = "dest167",
    pageno = "333"
  },
  {
    label = {
      {
        "Canon 37",
        col = 1,
        lno = 177,
        options = {
        },
        pos = 37441
      },
      id = "stuff"
    },
    level = 3,
    link = "dest168",
    pageno = "333"
  },
  {
    label = {
      {
        "Canon 38",
        col = 1,
        lno = 181,
        options = {
        },
        pos = 38564
      },
      id = "stuff"
    },
    level = 3,
    link = "dest169",
    pageno = "334"
  },
  {
    label = {
      {
        "Canon 39",
        col = 1,
        lno = 185,
        options = {
        },
        pos = 38813
      },
      id = "stuff"
    },
    level = 3,
    link = "dest170",
    pageno = "334"
  },
  {
    label = {
      {
        "Canon 40",
        col = 1,
        lno = 189,
        options = {
        },
        pos = 40122
      },
      id = "stuff"
    },
    level = 3,
    link = "dest171",
    pageno = "335"
  },
  {
    label = {
      {
        "Canon 41",
        col = 1,
        lno = 193,
        options = {
        },
        pos = 42022
      },
      id = "stuff"
    },
    level = 3,
    link = "dest172",
    pageno = "336"
  },
  {
    label = {
      {
        "Canon 42",
        col = 1,
        lno = 199,
        options = {
        },
        pos = 43566
      },
      id = "stuff"
    },
    level = 3,
    link = "dest173",
    pageno = "336"
  },
  {
    label = {
      {
        "Canon 43",
        col = 1,
        lno = 203,
        options = {
        },
        pos = 44109
      },
      id = "stuff"
    },
    level = 3,
    link = "dest174",
    pageno = "337"
  },
  {
    label = {
      {
        "Canon 44",
        col = 1,
        lno = 209,
        options = {
        },
        pos = 44698
      },
      id = "stuff"
    },
    level = 3,
    link = "dest175",
    pageno = "337"
  },
  {
    label = {
      {
        "Canon 45",
        col = 1,
        lno = 213,
        options = {
        },
        pos = 44899
      },
      id = "stuff"
    },
    level = 3,
    link = "dest176",
    pageno = "337"
  },
  {
    label = {
      {
        "Canon 46",
        col = 1,
        lno = 217,
        options = {
        },
        pos = 46296
      },
      id = "stuff"
    },
    level = 3,
    link = "dest177",
    pageno = "338"
  },
  {
    label = {
      {
        "Canon 47",
        col = 1,
        lno = 225,
        options = {
        },
        pos = 47038
      },
      id = "stuff"
    },
    level = 3,
    link = "dest178",
    pageno = "338"
  },
  {
    label = {
      {
        "Canon 48",
        col = 1,
        lno = 229,
        options = {
        },
        pos = 47376
      },
      id = "stuff"
    },
    level = 3,
    link = "dest179",
    pageno = "338"
  },
  {
    label = {
      {
        "Canon 49",
        col = 1,
        lno = 233,
        options = {
        },
        pos = 47786
      },
      id = "stuff"
    },
    level = 3,
    link = "dest180",
    pageno = "339"
  },
  {
    label = {
      {
        "Canon 50",
        col = 1,
        lno = 237,
        options = {
        },
        pos = 48277
      },
      id = "stuff"
    },
    level = 3,
    link = "dest181",
    pageno = "339"
  },
  {
    label = {
      {
        "Canon 51",
        col = 1,
        lno = 241,
        options = {
        },
        pos = 48505
      },
      id = "stuff"
    },
    level = 3,
    link = "dest182",
    pageno = "339"
  },
  {
    label = {
      {
        "Canon 52",
        col = 1,
        lno = 245,
        options = {
        },
        pos = 48867
      },
      id = "stuff"
    },
    level = 3,
    link = "dest183",
    pageno = "339"
  },
  {
    label = {
      {
        "Canon 53",
        col = 1,
        lno = 249,
        options = {
        },
        pos = 49052
      },
      id = "stuff"
    },
    level = 3,
    link = "dest184",
    pageno = "339"
  },
  {
    label = {
      {
        "Canon 54",
        col = 1,
        lno = 253,
        options = {
        },
        pos = 49606
      },
      id = "stuff"
    },
    level = 3,
    link = "dest185",
    pageno = "340"
  },
  {
    label = {
      {
        "Canon 55",
        col = 1,
        lno = 257,
        options = {
        },
        pos = 50741
      },
      id = "stuff"
    },
    level = 3,
    link = "dest186",
    pageno = "340"
  },
  {
    label = {
      {
        "Canon 56",
        col = 1,
        lno = 261,
        options = {
        },
        pos = 51209
      },
      id = "stuff"
    },
    level = 3,
    link = "dest187",
    pageno = "341"
  },
  {
    label = {
      {
        "Canon 57",
        col = 1,
        lno = 265,
        options = {
        },
        pos = 51807
      },
      id = "stuff"
    },
    level = 3,
    link = "dest188",
    pageno = "341"
  },
  {
    label = {
      {
        "Canon 58",
        col = 1,
        lno = 269,
        options = {
        },
        pos = 51884
      },
      id = "stuff"
    },
    level = 3,
    link = "dest189",
    pageno = "341"
  },
  {
    label = {
      {
        "Canon 59",
        col = 1,
        lno = 273,
        options = {
        },
        pos = 52253
      },
      id = "stuff"
    },
    level = 3,
    link = "dest190",
    pageno = "341"
  },
  {
    label = {
      {
        "Canon 60",
        col = 1,
        lno = 277,
        options = {
        },
        pos = 52634
      },
      id = "stuff"
    },
    level = 3,
    link = "dest191",
    pageno = "341"
  },
  {
    label = {
      {
        "Canon 61",
        col = 1,
        lno = 281,
        options = {
        },
        pos = 53275
      },
      id = "stuff"
    },
    level = 3,
    link = "dest192",
    pageno = "342"
  },
  {
    label = {
      {
        "Canon 62",
        col = 1,
        lno = 285,
        options = {
        },
        pos = 53987
      },
      id = "stuff"
    },
    level = 3,
    link = "dest193",
    pageno = "342"
  },
  {
    label = {
      {
        "Canon 63",
        col = 1,
        lno = 289,
        options = {
        },
        pos = 55089
      },
      id = "stuff"
    },
    level = 3,
    link = "dest194",
    pageno = "343"
  },
  {
    label = {
      {
        "Canon 64",
        col = 1,
        lno = 293,
        options = {
        },
        pos = 55467
      },
      id = "stuff"
    },
    level = 3,
    link = "dest195",
    pageno = "343"
  },
  {
    label = {
      {
        "Canon 65",
        col = 1,
        lno = 297,
        options = {
        },
        pos = 56780
      },
      id = "stuff"
    },
    level = 3,
    link = "dest196",
    pageno = "343"
  },
  {
    label = {
      {
        "Canon 66",
        col = 1,
        lno = 301,
        options = {
        },
        pos = 57497
      },
      id = "stuff"
    },
    level = 3,
    link = "dest197",
    pageno = "344"
  },
  {
    label = {
      {
        "Canon 67",
        col = 1,
        lno = 305,
        options = {
        },
        pos = 58046
      },
      id = "stuff"
    },
    level = 3,
    link = "dest198",
    pageno = "344"
  },
  {
    label = {
      {
        "Canon 68",
        col = 1,
        lno = 309,
        options = {
        },
        pos = 58455
      },
      id = "stuff"
    },
    level = 3,
    link = "dest199",
    pageno = "344"
  },
  {
    label = {
      {
        "Canon 69",
        col = 1,
        lno = 313,
        options = {
        },
        pos = 59133
      },
      id = "stuff"
    },
    level = 3,
    link = "dest200",
    pageno = "345"
  },
  {
    label = {
      {
        "Canon 70",
        col = 1,
        lno = 317,
        options = {
        },
        pos = 59405
      },
      id = "stuff"
    },
    level = 3,
    link = "dest201",
    pageno = "345"
  },
  {
    label = {
      {
        "Canon 71",
        col = 1,
        lno = 321,
        options = {
        },
        pos = 59729
      },
      id = "stuff"
    },
    level = 3,
    link = "dest202",
    pageno = "345"
  },
  {
    label = {
      {
        "Canon 72",
        col = 1,
        lno = 325,
        options = {
        },
        pos = 60170
      },
      id = "stuff"
    },
    level = 3,
    link = "dest203",
    pageno = "345"
  },
  {
    label = {
      {
        "Canon 73",
        col = 1,
        lno = 329,
        options = {
        },
        pos = 61332
      },
      id = "stuff"
    },
    level = 3,
    link = "dest204",
    pageno = "346"
  },
  {
    label = {
      {
        "Canon 74",
        col = 1,
        lno = 333,
        options = {
        },
        pos = 61938
      },
      id = "stuff"
    },
    level = 3,
    link = "dest205",
    pageno = "346"
  },
  {
    label = {
      {
        "Canon 75",
        col = 1,
        lno = 337,
        options = {
        },
        pos = 62180
      },
      id = "stuff"
    },
    level = 3,
    link = "dest206",
    pageno = "346"
  },
  {
    label = {
      {
        "Canon 76",
        col = 1,
        lno = 341,
        options = {
        },
        pos = 62599
      },
      id = "stuff"
    },
    level = 3,
    link = "dest207",
    pageno = "347"
  },
  {
    label = {
      {
        "Canon 77",
        col = 1,
        lno = 345,
        options = {
        },
        pos = 63119
      },
      id = "stuff"
    },
    level = 3,
    link = "dest208",
    pageno = "347"
  },
  {
    label = {
      {
        "Canon 78",
        col = 1,
        lno = 349,
        options = {
        },
        pos = 63470
      },
      id = "stuff"
    },
    level = 3,
    link = "dest209",
    pageno = "347"
  },
  {
    label = {
      {
        "Canon 79",
        col = 1,
        lno = 353,
        options = {
        },
        pos = 63636
      },
      id = "stuff"
    },
    level = 3,
    link = "dest210",
    pageno = "347"
  },
  {
    label = {
      {
        "Canon 80",
        col = 1,
        lno = 357,
        options = {
        },
        pos = 64578
      },
      id = "stuff"
    },
    level = 3,
    link = "dest211",
    pageno = "348"
  },
  {
    label = {
      {
        "Canon 81",
        col = 1,
        lno = 361,
        options = {
        },
        pos = 64982
      },
      id = "stuff"
    },
    level = 3,
    link = "dest212",
    pageno = "348"
  },
  {
    label = {
      {
        "Canon 82",
        col = 1,
        lno = 365,
        options = {
        },
        pos = 65720
      },
      id = "stuff"
    },
    level = 3,
    link = "dest213",
    pageno = "348"
  },
  {
    label = {
      {
        "Canon 83",
        col = 1,
        lno = 369,
        options = {
        },
        pos = 66666
      },
      id = "stuff"
    },
    level = 3,
    link = "dest214",
    pageno = "349"
  },
  {
    label = {
      {
        "Canon 84",
        col = 1,
        lno = 373,
        options = {
        },
        pos = 66831
      },
      id = "stuff"
    },
    level = 3,
    link = "dest215",
    pageno = "349"
  },
  {
    label = {
      {
        "Canon 85",
        col = 1,
        lno = 377,
        options = {
        },
        pos = 67304
      },
      id = "stuff"
    },
    level = 3,
    link = "dest216",
    pageno = "349"
  },
  {
    label = {
      {
        "Canon 86",
        col = 1,
        lno = 381,
        options = {
        },
        pos = 67781
      },
      id = "stuff"
    },
    level = 3,
    link = "dest217",
    pageno = "350"
  },
  {
    label = {
      {
        "Canon 87",
        col = 1,
        lno = 385,
        options = {
        },
        pos = 67965
      },
      id = "stuff"
    },
    level = 3,
    link = "dest218",
    pageno = "350"
  },
  {
    label = {
      {
        "Canon 88",
        col = 1,
        lno = 389,
        options = {
        },
        pos = 68940
      },
      id = "stuff"
    },
    level = 3,
    link = "dest219",
    pageno = "350"
  },
  {
    label = {
      {
        "Canon 89",
        col = 1,
        lno = 393,
        options = {
        },
        pos = 69670
      },
      id = "stuff"
    },
    level = 3,
    link = "dest220",
    pageno = "351"
  },
  {
    label = {
      {
        "Canon 90",
        col = 1,
        lno = 397,
        options = {
        },
        pos = 70086
      },
      id = "stuff"
    },
    level = 3,
    link = "dest221",
    pageno = "351"
  },
  {
    label = {
      {
        "Canon 91",
        col = 1,
        lno = 401,
        options = {
        },
        pos = 70869
      },
      id = "stuff"
    },
    level = 3,
    link = "dest222",
    pageno = "351"
  },
  {
    label = {
      {
        "Canon 92",
        col = 1,
        lno = 405,
        options = {
        },
        pos = 71027
      },
      id = "stuff"
    },
    level = 3,
    link = "dest223",
    pageno = "351"
  },
  {
    label = {
      {
        "Canon 93",
        col = 1,
        lno = 409,
        options = {
        },
        pos = 71274
      },
      id = "stuff"
    },
    level = 3,
    link = "dest224",
    pageno = "352"
  },
  {
    label = {
      {
        "Canon 94",
        col = 1,
        lno = 413,
        options = {
        },
        pos = 72332
      },
      id = "stuff"
    },
    level = 3,
    link = "dest225",
    pageno = "352"
  },
  {
    label = {
      {
        "Canon 95",
        col = 1,
        lno = 417,
        options = {
        },
        pos = 72456
      },
      id = "stuff"
    },
    level = 3,
    link = "dest226",
    pageno = "352"
  },
  {
    label = {
      {
        "Canon 96",
        col = 1,
        lno = 425,
        options = {
        },
        pos = 74302
      },
      id = "stuff"
    },
    level = 3,
    link = "dest227",
    pageno = "353"
  },
  {
    label = {
      {
        "Canon 97",
        col = 1,
        lno = 429,
        options = {
        },
        pos = 75298
      },
      id = "stuff"
    },
    level = 3,
    link = "dest228",
    pageno = "354"
  },
  {
    label = {
      {
        "Canon 98",
        col = 1,
        lno = 433,
        options = {
        },
        pos = 75722
      },
      id = "stuff"
    },
    level = 3,
    link = "dest229",
    pageno = "354"
  },
  {
    label = {
      {
        "Canon 99",
        col = 1,
        lno = 437,
        options = {
        },
        pos = 75890
      },
      id = "stuff"
    },
    level = 3,
    link = "dest230",
    pageno = "354"
  },
  {
    label = {
      {
        "Canon 100",
        col = 1,
        lno = 441,
        options = {
        },
        pos = 76472
      },
      id = "stuff"
    },
    level = 3,
    link = "dest231",
    pageno = "354"
  },
  {
    label = {
      {
        "Canon 101",
        col = 1,
        lno = 445,
        options = {
        },
        pos = 76950
      },
      id = "stuff"
    },
    level = 3,
    link = "dest232",
    pageno = "355"
  },
  {
    label = {
      {
        "Canon 102",
        col = 1,
        lno = 449,
        options = {
        },
        pos = 78018
      },
      id = "stuff"
    },
    level = 3,
    link = "dest233",
    pageno = "355"
  }
}